CREATE OR REPLACE VIEW DWH.PUBLIC.VWSOURCE_STAGEOPERATIONS_SOLAR_SOLCAST

AS

-- Actual Solar Measures (RAW_SOLCAST) -- 

SELECT 
    F.ASSETTYPEID       AS ASSETTYPEID,
    F.DATE              AS DATE,
    F.DEVICEID	        AS DEVICEID,
    F.DEVICETYPEID      AS DEVICETYPEID,
    D.LEGALENTITYID  	AS LEGALENTITYID,
    F.METRICID      	AS METRICID,
    NULL	            AS OPPORTUNITYID,
    F.PROJECTID         AS PROJECTID,
    F.SCENARIOID    	AS SCENARIOID,
    D.SITEID         	AS SITEID,
    F.TIMEID            AS TIMEID,
    F.VENDORID	        AS VENDORID,
    F.NUMERIC_VALUE     AS NUMERIC_VALUE,
    null 		        AS TEXT_VALUE,
    CURRENT_TIMESTAMP() AS GC_LOAD_TIMESTAMP
FROM 
    (
    SELECT
      'SOLAR'                       AS ASSETTYPEID,
      date_trunc('DAY',PERIODEND)   AS DATE,
      'SATELLITE'	                AS DEVICEID,
      'SOLAR_SATELLITE'             AS DEVICETYPEID,
      METRICID                      AS METRICID,
      TO_VARCHAR(PROJECT_CODE)                  AS PROJECTID,
      'ACTUAL' 	    	                        AS SCENARIOID,
      to_time(date_trunc('SECOND', PERIODEND))  AS TIMEID,
      'SOLCAST'                                 AS VENDORID,
      NUMERIC_VALUE
     FROM
      (
      SELECT 'SOLAR_AMBTEMP_SAT'    AS METRICID,  PROJECT_CODE, PERIODEND,    AIRTEMP AS NUMERIC_VALUE FROM DATAWAREHOUSE.PUBLIC.RAW_SOLCAST
      UNION ALL 
      SELECT  'SOLAR_GHI_SAT'	    AS METRICID, PROJECT_CODE, PERIODEND,     GHI AS NUMERIC_VALUE     FROM DATAWAREHOUSE.PUBLIC.RAW_SOLCAST
      UNION ALL 
      SELECT  'SOLAR_DNI'	    AS METRICID, PROJECT_CODE, PERIODEND, DNI AS NUMERIC_VALUE     FROM DATAWAREHOUSE.PUBLIC.RAW_SOLCAST
      UNION ALL 
      SELECT 'SOLAR_DHI'	    AS METRICID, PROJECT_CODE, PERIODEND, DHI AS NUMERIC_VALUE     FROM DATAWAREHOUSE.PUBLIC.RAW_SOLCAST
      )
      SUB
    )
    F
    -- Dimensions (LegalEntity, Site)
    INNER JOIN
    (
     SELECT 
       D.PROJECTID           AS PROJECTID,
       MAX(D.LEGALENTITYID)  AS LEGALENTITYID,
       D.SITEID              AS SITEID
    FROM
        DWH.PUBLIC.VWDIMENSIONS D
	GROUP BY 
       D.PROJECTID,
       D.SITEID
    )
    D
    ON
    D.PROJECTID = F.PROJECTID